%YAML 1.1
%TAG !u! tag:unity3d.com,2011:
--- !u!114 &11400000
MonoBehaviour:
  m_ObjectHideFlags: 0
  m_CorrespondingSourceObject: {fileID: 0}
  m_PrefabInstance: {fileID: 0}
  m_PrefabAsset: {fileID: 0}
  m_GameObject: {fileID: 0}
  m_Enabled: 1
  m_EditorHideFlags: 0
  m_Script: {fileID: 11500000, guid: 304db1e6795f01549841aefa6c588b36, type: 3}
  m_Name: Key
  m_EditorClassIdentifier: 
  name: Key
  type: 3
  sprite: {fileID: 21300000, guid: 59ea32e4eeabe754cb042b2721ec36b3, type: 3}
  description: It opens something
  m_effectPower: 0
  m_affectedStat: 
  m_buyingPrice: 0
  m_sellingPrice: 0
  m_geiResta: {fileID: 0}
  m_geiSuma: {fileID: 0}
  m_ges: {fileID: 0}
