%YAML 1.1
%TAG !u! tag:unity3d.com,2011:
--- !u!114 &11400000
MonoBehaviour:
  m_ObjectHideFlags: 0
  m_CorrespondingSourceObject: {fileID: 0}
  m_PrefabInstance: {fileID: 0}
  m_PrefabAsset: {fileID: 0}
  m_GameObject: {fileID: 0}
  m_Enabled: 1
  m_EditorHideFlags: 0
  m_Script: {fileID: 11500000, guid: 304db1e6795f01549841aefa6c588b36, type: 3}
  m_Name: Pocion_Amorosa
  m_EditorClassIdentifier: 
  name: "Poci\xF3n Amorosa"
  type: 0
  sprite: {fileID: 21300000, guid: 187e63eeee18280409ab6bf9fa5b39eb, type: 3}
  description: Pocion de amor que sirve para el amor de dios amor divino
  m_effectPower: 100
  m_affectedStat: 00000000
  m_buyingPrice: 69
  m_sellingPrice: 0
  m_geiResta: {fileID: 11400000, guid: d937c018cd83a55488bdb2ed51f36cec, type: 2}
  m_geiSuma: {fileID: 11400000, guid: a259b9e0223aa85438d8b9dd8731c03c, type: 2}
  m_ges: {fileID: 11400000, guid: 99f52b95164f6df4b8b46e1828b2dfcc, type: 2}
