%YAML 1.1
%TAG !u! tag:unity3d.com,2011:
--- !u!1 &691278391219472485
GameObject:
  m_ObjectHideFlags: 0
  m_CorrespondingSourceObject: {fileID: 0}
  m_PrefabInstance: {fileID: 0}
  m_PrefabAsset: {fileID: 0}
  serializedVersion: 6
  m_Component:
  - component: {fileID: 507309185833708556}
  - component: {fileID: 8221401607003631221}
  - component: {fileID: 3495096409852854522}
  m_Layer: 0
  m_Name: Layer1
  m_TagString: Untagged
  m_Icon: {fileID: 0}
  m_NavMeshLayer: 0
  m_StaticEditorFlags: 0
  m_IsActive: 1
--- !u!4 &507309185833708556
Transform:
  m_ObjectHideFlags: 0
  m_CorrespondingSourceObject: {fileID: 0}
  m_PrefabInstance: {fileID: 0}
  m_PrefabAsset: {fileID: 0}
  m_GameObject: {fileID: 691278391219472485}
  m_LocalRotation: {x: -0, y: -0, z: -0, w: 1}
  m_LocalPosition: {x: 0, y: 0, z: 0}
  m_LocalScale: {x: 1, y: 1, z: 1}
  m_ConstrainProportionsScale: 0
  m_Children: []
  m_Father: {fileID: 4551971361262269}
  m_RootOrder: 0
  m_LocalEulerAnglesHint: {x: 0, y: 0, z: 0}
--- !u!1839735485 &8221401607003631221
Tilemap:
  m_ObjectHideFlags: 0
  m_CorrespondingSourceObject: {fileID: 0}
  m_PrefabInstance: {fileID: 0}
  m_PrefabAsset: {fileID: 0}
  m_GameObject: {fileID: 691278391219472485}
  m_Enabled: 1
  m_Tiles:
  - first: {x: 0, y: 2, z: 0}
    second:
      serializedVersion: 2
      m_TileIndex: 57
      m_TileSpriteIndex: 56
      m_TileMatrixIndex: 0
      m_TileColorIndex: 47
      m_TileObjectToInstantiateIndex: 65535
      dummyAlignment: 0
      m_AllTileFlags: 1073741825
  - first: {x: 1, y: 2, z: 0}
    second:
      serializedVersion: 2
      m_TileIndex: 58
      m_TileSpriteIndex: 57
      m_TileMatrixIndex: 0
      m_TileColorIndex: 47
      m_TileObjectToInstantiateIndex: 65535
      dummyAlignment: 0
      m_AllTileFlags: 1073741825
  - first: {x: 2, y: 2, z: 0}
    second:
      serializedVersion: 2
      m_TileIndex: 59
      m_TileSpriteIndex: 58
      m_TileMatrixIndex: 0
      m_TileColorIndex: 47
      m_TileObjectToInstantiateIndex: 65535
      dummyAlignment: 0
      m_AllTileFlags: 1073741825
  - first: {x: 3, y: 2, z: 0}
    second:
      serializedVersion: 2
      m_TileIndex: 60
      m_TileSpriteIndex: 59
      m_TileMatrixIndex: 0
      m_TileColorIndex: 47
      m_TileObjectToInstantiateIndex: 65535
      dummyAlignment: 0
      m_AllTileFlags: 1073741825
  - first: {x: 4, y: 2, z: 0}
    second:
      serializedVersion: 2
      m_TileIndex: 61
      m_TileSpriteIndex: 60
      m_TileMatrixIndex: 0
      m_TileColorIndex: 47
      m_TileObjectToInstantiateIndex: 65535
      dummyAlignment: 0
      m_AllTileFlags: 1073741825
  - first: {x: 5, y: 2, z: 0}
    second:
      serializedVersion: 2
      m_TileIndex: 62
      m_TileSpriteIndex: 61
      m_TileMatrixIndex: 0
      m_TileColorIndex: 47
      m_TileObjectToInstantiateIndex: 65535
      dummyAlignment: 0
      m_AllTileFlags: 1073741825
  - first: {x: 6, y: 2, z: 0}
    second:
      serializedVersion: 2
      m_TileIndex: 63
      m_TileSpriteIndex: 62
      m_TileMatrixIndex: 0
      m_TileColorIndex: 47
      m_TileObjectToInstantiateIndex: 65535
      dummyAlignment: 0
      m_AllTileFlags: 1073741825
  - first: {x: -1, y: 3, z: 0}
    second:
      serializedVersion: 2
      m_TileIndex: 70
      m_TileSpriteIndex: 69
      m_TileMatrixIndex: 0
      m_TileColorIndex: 47
      m_TileObjectToInstantiateIndex: 65535
      dummyAlignment: 0
      m_AllTileFlags: 1073741825
  - first: {x: 0, y: 3, z: 0}
    second:
      serializedVersion: 2
      m_TileIndex: 71
      m_TileSpriteIndex: 70
      m_TileMatrixIndex: 0
      m_TileColorIndex: 47
      m_TileObjectToInstantiateIndex: 65535
      dummyAlignment: 0
      m_AllTileFlags: 1073741825
  - first: {x: 1, y: 3, z: 0}
    second:
      serializedVersion: 2
      m_TileIndex: 79
      m_TileSpriteIndex: 78
      m_TileMatrixIndex: 0
      m_TileColorIndex: 47
      m_TileObjectToInstantiateIndex: 65535
      dummyAlignment: 0
      m_AllTileFlags: 1073741825
  - first: {x: 2, y: 3, z: 0}
    second:
      serializedVersion: 2
      m_TileIndex: 95
      m_TileSpriteIndex: 94
      m_TileMatrixIndex: 0
      m_TileColorIndex: 47
      m_TileObjectToInstantiateIndex: 65535
      dummyAlignment: 0
      m_AllTileFlags: 1073741825
  - first: {x: 3, y: 3, z: 0}
    second:
      serializedVersion: 2
      m_TileIndex: 96
      m_TileSpriteIndex: 95
      m_TileMatrixIndex: 0
      m_TileColorIndex: 47
      m_TileObjectToInstantiateIndex: 65535
      dummyAlignment: 0
      m_AllTileFlags: 1073741825
  - first: {x: 4, y: 3, z: 0}
    second:
      serializedVersion: 2
      m_TileIndex: 99
      m_TileSpriteIndex: 98
      m_TileMatrixIndex: 0
      m_TileColorIndex: 47
      m_TileObjectToInstantiateIndex: 65535
      dummyAlignment: 0
      m_AllTileFlags: 1073741825
  - first: {x: 5, y: 3, z: 0}
    second:
      serializedVersion: 2
      m_TileIndex: 100
      m_TileSpriteIndex: 99
      m_TileMatrixIndex: 0
      m_TileColorIndex: 47
      m_TileObjectToInstantiateIndex: 65535
      dummyAlignment: 0
      m_AllTileFlags: 1073741825
  - first: {x: 6, y: 3, z: 0}
    second:
      serializedVersion: 2
      m_TileIndex: 101
      m_TileSpriteIndex: 100
      m_TileMatrixIndex: 0
      m_TileColorIndex: 47
      m_TileObjectToInstantiateIndex: 65535
      dummyAlignment: 0
      m_AllTileFlags: 1073741825
  - first: {x: -1, y: 4, z: 0}
    second:
      serializedVersion: 2
      m_TileIndex: 90
      m_TileSpriteIndex: 89
      m_TileMatrixIndex: 0
      m_TileColorIndex: 47
      m_TileObjectToInstantiateIndex: 65535
      dummyAlignment: 0
      m_AllTileFlags: 1073741825
  - first: {x: 0, y: 4, z: 0}
    second:
      serializedVersion: 2
      m_TileIndex: 91
      m_TileSpriteIndex: 90
      m_TileMatrixIndex: 0
      m_TileColorIndex: 47
      m_TileObjectToInstantiateIndex: 65535
      dummyAlignment: 0
      m_AllTileFlags: 1073741825
  - first: {x: 1, y: 4, z: 0}
    second:
      serializedVersion: 2
      m_TileIndex: 92
      m_TileSpriteIndex: 91
      m_TileMatrixIndex: 0
      m_TileColorIndex: 47
      m_TileObjectToInstantiateIndex: 65535
      dummyAlignment: 0
      m_AllTileFlags: 1073741825
  - first: {x: 2, y: 4, z: 0}
    second:
      serializedVersion: 2
      m_TileIndex: 93
      m_TileSpriteIndex: 92
      m_TileMatrixIndex: 0
      m_TileColorIndex: 47
      m_TileObjectToInstantiateIndex: 65535
      dummyAlignment: 0
      m_AllTileFlags: 1073741825
  - first: {x: 3, y: 4, z: 0}
    second:
      serializedVersion: 2
      m_TileIndex: 94
      m_TileSpriteIndex: 93
      m_TileMatrixIndex: 0
      m_TileColorIndex: 47
      m_TileObjectToInstantiateIndex: 65535
      dummyAlignment: 0
      m_AllTileFlags: 1073741825
  - first: {x: 4, y: 4, z: 0}
    second:
      serializedVersion: 2
      m_TileIndex: 102
      m_TileSpriteIndex: 101
      m_TileMatrixIndex: 0
      m_TileColorIndex: 47
      m_TileObjectToInstantiateIndex: 65535
      dummyAlignment: 0
      m_AllTileFlags: 1073741825
  - first: {x: 5, y: 4, z: 0}
    second:
      serializedVersion: 2
      m_TileIndex: 103
      m_TileSpriteIndex: 102
      m_TileMatrixIndex: 0
      m_TileColorIndex: 47
      m_TileObjectToInstantiateIndex: 65535
      dummyAlignment: 0
      m_AllTileFlags: 1073741825
  - first: {x: 6, y: 4, z: 0}
    second:
      serializedVersion: 2
      m_TileIndex: 104
      m_TileSpriteIndex: 103
      m_TileMatrixIndex: 0
      m_TileColorIndex: 47
      m_TileObjectToInstantiateIndex: 65535
      dummyAlignment: 0
      m_AllTileFlags: 1073741825
  - first: {x: -1, y: 5, z: 0}
    second:
      serializedVersion: 2
      m_TileIndex: 85
      m_TileSpriteIndex: 84
      m_TileMatrixIndex: 0
      m_TileColorIndex: 47
      m_TileObjectToInstantiateIndex: 65535
      dummyAlignment: 0
      m_AllTileFlags: 1073741825
  - first: {x: 0, y: 5, z: 0}
    second:
      serializedVersion: 2
      m_TileIndex: 86
      m_TileSpriteIndex: 85
      m_TileMatrixIndex: 0
      m_TileColorIndex: 47
      m_TileObjectToInstantiateIndex: 65535
      dummyAlignment: 0
      m_AllTileFlags: 1073741825
  - first: {x: 1, y: 5, z: 0}
    second:
      serializedVersion: 2
      m_TileIndex: 87
      m_TileSpriteIndex: 86
      m_TileMatrixIndex: 0
      m_TileColorIndex: 47
      m_TileObjectToInstantiateIndex: 65535
      dummyAlignment: 0
      m_AllTileFlags: 1073741825
  - first: {x: 2, y: 5, z: 0}
    second:
      serializedVersion: 2
      m_TileIndex: 88
      m_TileSpriteIndex: 87
      m_TileMatrixIndex: 0
      m_TileColorIndex: 47
      m_TileObjectToInstantiateIndex: 65535
      dummyAlignment: 0
      m_AllTileFlags: 1073741825
  - first: {x: 3, y: 5, z: 0}
    second:
      serializedVersion: 2
      m_TileIndex: 89
      m_TileSpriteIndex: 88
      m_TileMatrixIndex: 0
      m_TileColorIndex: 47
      m_TileObjectToInstantiateIndex: 65535
      dummyAlignment: 0
      m_AllTileFlags: 1073741825
  - first: {x: 4, y: 5, z: 0}
    second:
      serializedVersion: 2
      m_TileIndex: 105
      m_TileSpriteIndex: 104
      m_TileMatrixIndex: 0
      m_TileColorIndex: 47
      m_TileObjectToInstantiateIndex: 65535
      dummyAlignment: 0
      m_AllTileFlags: 1073741825
  - first: {x: 5, y: 5, z: 0}
    second:
      serializedVersion: 2
      m_TileIndex: 106
      m_TileSpriteIndex: 105
      m_TileMatrixIndex: 0
      m_TileColorIndex: 47
      m_TileObjectToInstantiateIndex: 65535
      dummyAlignment: 0
      m_AllTileFlags: 1073741825
  - first: {x: 6, y: 5, z: 0}
    second:
      serializedVersion: 2
      m_TileIndex: 107
      m_TileSpriteIndex: 106
      m_TileMatrixIndex: 0
      m_TileColorIndex: 47
      m_TileObjectToInstantiateIndex: 65535
      dummyAlignment: 0
      m_AllTileFlags: 1073741825
  - first: {x: -1, y: 6, z: 0}
    second:
      serializedVersion: 2
      m_TileIndex: 80
      m_TileSpriteIndex: 79
      m_TileMatrixIndex: 0
      m_TileColorIndex: 47
      m_TileObjectToInstantiateIndex: 65535
      dummyAlignment: 0
      m_AllTileFlags: 1073741825
  - first: {x: 0, y: 6, z: 0}
    second:
      serializedVersion: 2
      m_TileIndex: 81
      m_TileSpriteIndex: 80
      m_TileMatrixIndex: 0
      m_TileColorIndex: 47
      m_TileObjectToInstantiateIndex: 65535
      dummyAlignment: 0
      m_AllTileFlags: 1073741825
  - first: {x: 1, y: 6, z: 0}
    second:
      serializedVersion: 2
      m_TileIndex: 82
      m_TileSpriteIndex: 81
      m_TileMatrixIndex: 0
      m_TileColorIndex: 47
      m_TileObjectToInstantiateIndex: 65535
      dummyAlignment: 0
      m_AllTileFlags: 1073741825
  - first: {x: 2, y: 6, z: 0}
    second:
      serializedVersion: 2
      m_TileIndex: 83
      m_TileSpriteIndex: 82
      m_TileMatrixIndex: 0
      m_TileColorIndex: 47
      m_TileObjectToInstantiateIndex: 65535
      dummyAlignment: 0
      m_AllTileFlags: 1073741825
  - first: {x: 3, y: 6, z: 0}
    second:
      serializedVersion: 2
      m_TileIndex: 84
      m_TileSpriteIndex: 83
      m_TileMatrixIndex: 0
      m_TileColorIndex: 47
      m_TileObjectToInstantiateIndex: 65535
      dummyAlignment: 0
      m_AllTileFlags: 1073741825
  - first: {x: 4, y: 6, z: 0}
    second:
      serializedVersion: 2
      m_TileIndex: 108
      m_TileSpriteIndex: 107
      m_TileMatrixIndex: 0
      m_TileColorIndex: 47
      m_TileObjectToInstantiateIndex: 65535
      dummyAlignment: 0
      m_AllTileFlags: 1073741825
  - first: {x: 5, y: 6, z: 0}
    second:
      serializedVersion: 2
      m_TileIndex: 109
      m_TileSpriteIndex: 108
      m_TileMatrixIndex: 0
      m_TileColorIndex: 47
      m_TileObjectToInstantiateIndex: 65535
      dummyAlignment: 0
      m_AllTileFlags: 1073741825
  - first: {x: 6, y: 6, z: 0}
    second:
      serializedVersion: 2
      m_TileIndex: 110
      m_TileSpriteIndex: 109
      m_TileMatrixIndex: 0
      m_TileColorIndex: 47
      m_TileObjectToInstantiateIndex: 65535
      dummyAlignment: 0
      m_AllTileFlags: 1073741825
  - first: {x: -1, y: 7, z: 0}
    second:
      serializedVersion: 2
      m_TileIndex: 72
      m_TileSpriteIndex: 71
      m_TileMatrixIndex: 0
      m_TileColorIndex: 47
      m_TileObjectToInstantiateIndex: 65535
      dummyAlignment: 0
      m_AllTileFlags: 1073741825
  - first: {x: 0, y: 7, z: 0}
    second:
      serializedVersion: 2
      m_TileIndex: 73
      m_TileSpriteIndex: 72
      m_TileMatrixIndex: 0
      m_TileColorIndex: 47
      m_TileObjectToInstantiateIndex: 65535
      dummyAlignment: 0
      m_AllTileFlags: 1073741825
  - first: {x: 1, y: 7, z: 0}
    second:
      serializedVersion: 2
      m_TileIndex: 74
      m_TileSpriteIndex: 73
      m_TileMatrixIndex: 0
      m_TileColorIndex: 47
      m_TileObjectToInstantiateIndex: 65535
      dummyAlignment: 0
      m_AllTileFlags: 1073741825
  - first: {x: 2, y: 7, z: 0}
    second:
      serializedVersion: 2
      m_TileIndex: 75
      m_TileSpriteIndex: 74
      m_TileMatrixIndex: 0
      m_TileColorIndex: 47
      m_TileObjectToInstantiateIndex: 65535
      dummyAlignment: 0
      m_AllTileFlags: 1073741825
  - first: {x: 3, y: 7, z: 0}
    second:
      serializedVersion: 2
      m_TileIndex: 76
      m_TileSpriteIndex: 75
      m_TileMatrixIndex: 0
      m_TileColorIndex: 47
      m_TileObjectToInstantiateIndex: 65535
      dummyAlignment: 0
      m_AllTileFlags: 1073741825
  - first: {x: 4, y: 7, z: 0}
    second:
      serializedVersion: 2
      m_TileIndex: 77
      m_TileSpriteIndex: 76
      m_TileMatrixIndex: 0
      m_TileColorIndex: 47
      m_TileObjectToInstantiateIndex: 65535
      dummyAlignment: 0
      m_AllTileFlags: 1073741825
  - first: {x: 5, y: 7, z: 0}
    second:
      serializedVersion: 2
      m_TileIndex: 78
      m_TileSpriteIndex: 77
      m_TileMatrixIndex: 0
      m_TileColorIndex: 47
      m_TileObjectToInstantiateIndex: 65535
      dummyAlignment: 0
      m_AllTileFlags: 1073741825
  - first: {x: 6, y: 7, z: 0}
    second:
      serializedVersion: 2
      m_TileIndex: 48
      m_TileSpriteIndex: 47
      m_TileMatrixIndex: 0
      m_TileColorIndex: 47
      m_TileObjectToInstantiateIndex: 65535
      dummyAlignment: 0
      m_AllTileFlags: 1073741825
  - first: {x: -1, y: 8, z: 0}
    second:
      serializedVersion: 2
      m_TileIndex: 64
      m_TileSpriteIndex: 63
      m_TileMatrixIndex: 0
      m_TileColorIndex: 47
      m_TileObjectToInstantiateIndex: 65535
      dummyAlignment: 0
      m_AllTileFlags: 1073741825
  - first: {x: 0, y: 8, z: 0}
    second:
      serializedVersion: 2
      m_TileIndex: 65
      m_TileSpriteIndex: 64
      m_TileMatrixIndex: 0
      m_TileColorIndex: 47
      m_TileObjectToInstantiateIndex: 65535
      dummyAlignment: 0
      m_AllTileFlags: 1073741825
  - first: {x: 1, y: 8, z: 0}
    second:
      serializedVersion: 2
      m_TileIndex: 66
      m_TileSpriteIndex: 65
      m_TileMatrixIndex: 0
      m_TileColorIndex: 47
      m_TileObjectToInstantiateIndex: 65535
      dummyAlignment: 0
      m_AllTileFlags: 1073741825
  - first: {x: 2, y: 8, z: 0}
    second:
      serializedVersion: 2
      m_TileIndex: 67
      m_TileSpriteIndex: 66
      m_TileMatrixIndex: 0
      m_TileColorIndex: 47
      m_TileObjectToInstantiateIndex: 65535
      dummyAlignment: 0
      m_AllTileFlags: 1073741825
  - first: {x: 3, y: 8, z: 0}
    second:
      serializedVersion: 2
      m_TileIndex: 68
      m_TileSpriteIndex: 67
      m_TileMatrixIndex: 0
      m_TileColorIndex: 47
      m_TileObjectToInstantiateIndex: 65535
      dummyAlignment: 0
      m_AllTileFlags: 1073741825
  - first: {x: 4, y: 8, z: 0}
    second:
      serializedVersion: 2
      m_TileIndex: 69
      m_TileSpriteIndex: 68
      m_TileMatrixIndex: 0
      m_TileColorIndex: 47
      m_TileObjectToInstantiateIndex: 65535
      dummyAlignment: 0
      m_AllTileFlags: 1073741825
  - first: {x: 5, y: 8, z: 0}
    second:
      serializedVersion: 2
      m_TileIndex: 98
      m_TileSpriteIndex: 97
      m_TileMatrixIndex: 0
      m_TileColorIndex: 47
      m_TileObjectToInstantiateIndex: 65535
      dummyAlignment: 0
      m_AllTileFlags: 1073741825
  - first: {x: 6, y: 8, z: 0}
    second:
      serializedVersion: 2
      m_TileIndex: 49
      m_TileSpriteIndex: 48
      m_TileMatrixIndex: 0
      m_TileColorIndex: 47
      m_TileObjectToInstantiateIndex: 65535
      dummyAlignment: 0
      m_AllTileFlags: 1073741825
  - first: {x: -1, y: 9, z: 0}
    second:
      serializedVersion: 2
      m_TileIndex: 56
      m_TileSpriteIndex: 55
      m_TileMatrixIndex: 0
      m_TileColorIndex: 47
      m_TileObjectToInstantiateIndex: 65535
      dummyAlignment: 0
      m_AllTileFlags: 1073741825
  - first: {x: 0, y: 9, z: 0}
    second:
      serializedVersion: 2
      m_TileIndex: 55
      m_TileSpriteIndex: 54
      m_TileMatrixIndex: 0
      m_TileColorIndex: 47
      m_TileObjectToInstantiateIndex: 65535
      dummyAlignment: 0
      m_AllTileFlags: 1073741825
  - first: {x: 1, y: 9, z: 0}
    second:
      serializedVersion: 2
      m_TileIndex: 54
      m_TileSpriteIndex: 53
      m_TileMatrixIndex: 0
      m_TileColorIndex: 47
      m_TileObjectToInstantiateIndex: 65535
      dummyAlignment: 0
      m_AllTileFlags: 1073741825
  - first: {x: 2, y: 9, z: 0}
    second:
      serializedVersion: 2
      m_TileIndex: 53
      m_TileSpriteIndex: 52
      m_TileMatrixIndex: 0
      m_TileColorIndex: 47
      m_TileObjectToInstantiateIndex: 65535
      dummyAlignment: 0
      m_AllTileFlags: 1073741825
  - first: {x: 3, y: 9, z: 0}
    second:
      serializedVersion: 2
      m_TileIndex: 52
      m_TileSpriteIndex: 51
      m_TileMatrixIndex: 0
      m_TileColorIndex: 47
      m_TileObjectToInstantiateIndex: 65535
      dummyAlignment: 0
      m_AllTileFlags: 1073741825
  - first: {x: 4, y: 9, z: 0}
    second:
      serializedVersion: 2
      m_TileIndex: 51
      m_TileSpriteIndex: 50
      m_TileMatrixIndex: 0
      m_TileColorIndex: 47
      m_TileObjectToInstantiateIndex: 65535
      dummyAlignment: 0
      m_AllTileFlags: 1073741825
  - first: {x: 5, y: 9, z: 0}
    second:
      serializedVersion: 2
      m_TileIndex: 97
      m_TileSpriteIndex: 96
      m_TileMatrixIndex: 0
      m_TileColorIndex: 47
      m_TileObjectToInstantiateIndex: 65535
      dummyAlignment: 0
      m_AllTileFlags: 1073741825
  - first: {x: 6, y: 9, z: 0}
    second:
      serializedVersion: 2
      m_TileIndex: 50
      m_TileSpriteIndex: 49
      m_TileMatrixIndex: 0
      m_TileColorIndex: 47
      m_TileObjectToInstantiateIndex: 65535
      dummyAlignment: 0
      m_AllTileFlags: 1073741825
  m_AnimatedTiles: {}
  m_TileAssetArray:
  - m_RefCount: 0
    m_Data: {fileID: 0}
  - m_RefCount: 0
    m_Data: {fileID: 0}
  - m_RefCount: 0
    m_Data: {fileID: 0}
  - m_RefCount: 0
    m_Data: {fileID: 0}
  - m_RefCount: 0
    m_Data: {fileID: 0}
  - m_RefCount: 0
    m_Data: {fileID: 0}
  - m_RefCount: 0
    m_Data: {fileID: 0}
  - m_RefCount: 0
    m_Data: {fileID: 0}
  - m_RefCount: 0
    m_Data: {fileID: 0}
  - m_RefCount: 0
    m_Data: {fileID: 0}
  - m_RefCount: 0
    m_Data: {fileID: 0}
  - m_RefCount: 0
    m_Data: {fileID: 0}
  - m_RefCount: 0
    m_Data: {fileID: 0}
  - m_RefCount: 0
    m_Data: {fileID: 0}
  - m_RefCount: 0
    m_Data: {fileID: 0}
  - m_RefCount: 0
    m_Data: {fileID: 0}
  - m_RefCount: 0
    m_Data: {fileID: 0}
  - m_RefCount: 0
    m_Data: {fileID: 0}
  - m_RefCount: 0
    m_Data: {fileID: 0}
  - m_RefCount: 0
    m_Data: {fileID: 0}
  - m_RefCount: 0
    m_Data: {fileID: 0}
  - m_RefCount: 0
    m_Data: {fileID: 0}
  - m_RefCount: 0
    m_Data: {fileID: 0}
  - m_RefCount: 0
    m_Data: {fileID: 0}
  - m_RefCount: 0
    m_Data: {fileID: 0}
  - m_RefCount: 0
    m_Data: {fileID: 0}
  - m_RefCount: 0
    m_Data: {fileID: 0}
  - m_RefCount: 0
    m_Data: {fileID: 0}
  - m_RefCount: 0
    m_Data: {fileID: 0}
  - m_RefCount: 0
    m_Data: {fileID: 0}
  - m_RefCount: 0
    m_Data: {fileID: 0}
  - m_RefCount: 0
    m_Data: {fileID: 0}
  - m_RefCount: 0
    m_Data: {fileID: 0}
  - m_RefCount: 0
    m_Data: {fileID: 0}
  - m_RefCount: 0
    m_Data: {fileID: 0}
  - m_RefCount: 0
    m_Data: {fileID: 0}
  - m_RefCount: 0
    m_Data: {fileID: 0}
  - m_RefCount: 0
    m_Data: {fileID: 0}
  - m_RefCount: 0
    m_Data: {fileID: 0}
  - m_RefCount: 0
    m_Data: {fileID: 0}
  - m_RefCount: 0
    m_Data: {fileID: 0}
  - m_RefCount: 0
    m_Data: {fileID: 0}
  - m_RefCount: 0
    m_Data: {fileID: 0}
  - m_RefCount: 0
    m_Data: {fileID: 0}
  - m_RefCount: 0
    m_Data: {fileID: 0}
  - m_RefCount: 0
    m_Data: {fileID: 0}
  - m_RefCount: 0
    m_Data: {fileID: 0}
  - m_RefCount: 0
    m_Data: {fileID: 0}
  - m_RefCount: 1
    m_Data: {fileID: 11400000, guid: 21038f36b3dd5684580770bffa39b605, type: 2}
  - m_RefCount: 1
    m_Data: {fileID: 11400000, guid: aaea65af772aae64abd9d7ccb562f0c0, type: 2}
  - m_RefCount: 1
    m_Data: {fileID: 11400000, guid: 79142e206b6a0ce4f8cf32367fcb2ef6, type: 2}
  - m_RefCount: 1
    m_Data: {fileID: 11400000, guid: 7feb52e74d0dcfa4abbef8bb4b940c9d, type: 2}
  - m_RefCount: 1
    m_Data: {fileID: 11400000, guid: 1bc12d8d6448c2d458e5eed72564ff6e, type: 2}
  - m_RefCount: 1
    m_Data: {fileID: 11400000, guid: 97fe46190f1721643a2dd652a5753179, type: 2}
  - m_RefCount: 1
    m_Data: {fileID: 11400000, guid: f4df8281951e7ca4c882d56d8317f63b, type: 2}
  - m_RefCount: 1
    m_Data: {fileID: 11400000, guid: 16d5087380a26804ebbd81d20a87bad7, type: 2}
  - m_RefCount: 1
    m_Data: {fileID: 11400000, guid: 4eefcfa0ac931ca41a7e9d3ecd6fa5ef, type: 2}
  - m_RefCount: 1
    m_Data: {fileID: 11400000, guid: 5724f1682444f4a4c804ad7e005eb25f, type: 2}
  - m_RefCount: 1
    m_Data: {fileID: 11400000, guid: 7cdf8ae5bb2acae4691abfe4ecc60fff, type: 2}
  - m_RefCount: 1
    m_Data: {fileID: 11400000, guid: 7a5b3e1d4cc56d64c988e4564a2fe8b1, type: 2}
  - m_RefCount: 1
    m_Data: {fileID: 11400000, guid: 908d13bc4bc9afe42a350cc745686649, type: 2}
  - m_RefCount: 1
    m_Data: {fileID: 11400000, guid: 6b85de3e5d986434d8893b24bcb20344, type: 2}
  - m_RefCount: 1
    m_Data: {fileID: 11400000, guid: 84b0f931b72311c428cb0c4ad5234e4f, type: 2}
  - m_RefCount: 1
    m_Data: {fileID: 11400000, guid: 175afd0b5a9ee41439a44d65367222ec, type: 2}
  - m_RefCount: 1
    m_Data: {fileID: 11400000, guid: 0190128011810004c9911c42ea5283cf, type: 2}
  - m_RefCount: 1
    m_Data: {fileID: 11400000, guid: 0ae076d403c67864288d8b555dd6372e, type: 2}
  - m_RefCount: 1
    m_Data: {fileID: 11400000, guid: d74b2ec9a6218d84a9eec810c674ca05, type: 2}
  - m_RefCount: 1
    m_Data: {fileID: 11400000, guid: a5fada15e1f32004483410f90c55adb8, type: 2}
  - m_RefCount: 1
    m_Data: {fileID: 11400000, guid: 0d7669950a1932f40a4bc90d98b4c79b, type: 2}
  - m_RefCount: 1
    m_Data: {fileID: 11400000, guid: 93396f9f8a661ec4495cc30583d9e77c, type: 2}
  - m_RefCount: 1
    m_Data: {fileID: 11400000, guid: 67565c32586f1df45929c12fe8f3df1a, type: 2}
  - m_RefCount: 1
    m_Data: {fileID: 11400000, guid: 25de756df68847d459da510bd5798ecb, type: 2}
  - m_RefCount: 1
    m_Data: {fileID: 11400000, guid: e80de245b6f04e94e92216a762656dd2, type: 2}
  - m_RefCount: 1
    m_Data: {fileID: 11400000, guid: f79555bce0442814fa10fb4824af1192, type: 2}
  - m_RefCount: 1
    m_Data: {fileID: 11400000, guid: fa506fe4227829d43acbfb19b4f3621d, type: 2}
  - m_RefCount: 1
    m_Data: {fileID: 11400000, guid: 56b17ca69e819fe43b0b12b44b348f97, type: 2}
  - m_RefCount: 1
    m_Data: {fileID: 11400000, guid: b847ac0dc89c66747ab2c061d2c8cbc3, type: 2}
  - m_RefCount: 1
    m_Data: {fileID: 11400000, guid: c965cf40a07c5244fadb256f3e761b25, type: 2}
  - m_RefCount: 1
    m_Data: {fileID: 11400000, guid: b3942612c603d624c9af8be89eadf2f5, type: 2}
  - m_RefCount: 1
    m_Data: {fileID: 11400000, guid: c6dd97083506a20489fb3ada8d42ab51, type: 2}
  - m_RefCount: 1
    m_Data: {fileID: 11400000, guid: 59b15b1dbd6d45b47ba0e047086a3c37, type: 2}
  - m_RefCount: 1
    m_Data: {fileID: 11400000, guid: 7b8df112be4c91b45a0d6f41b46366b8, type: 2}
  - m_RefCount: 1
    m_Data: {fileID: 11400000, guid: ab6a7a2007ec46b4d9426d891af3e18d, type: 2}
  - m_RefCount: 1
    m_Data: {fileID: 11400000, guid: 8b28d86833af05e43981651678147db3, type: 2}
  - m_RefCount: 1
    m_Data: {fileID: 11400000, guid: 73eafff24532d8e49937b190a3e382bd, type: 2}
  - m_RefCount: 1
    m_Data: {fileID: 11400000, guid: 9b57acdef2126534e878fd5f515cda3a, type: 2}
  - m_RefCount: 1
    m_Data: {fileID: 11400000, guid: 63a07e10da3c6024a8a0ade13f906a70, type: 2}
  - m_RefCount: 1
    m_Data: {fileID: 11400000, guid: 2bc28ec9bdfde974fac0ab941e7a2008, type: 2}
  - m_RefCount: 1
    m_Data: {fileID: 11400000, guid: 57f4f224dc0c6264683124f9f42f218a, type: 2}
  - m_RefCount: 1
    m_Data: {fileID: 11400000, guid: 0b7c6f0344a7eda4080f64c2e9aceee7, type: 2}
  - m_RefCount: 1
    m_Data: {fileID: 11400000, guid: 1fb4540462b85e540b6a506008eba31f, type: 2}
  - m_RefCount: 1
    m_Data: {fileID: 11400000, guid: 634e5ea0f5545094d9db2958693681bb, type: 2}
  - m_RefCount: 1
    m_Data: {fileID: 11400000, guid: 6f085b759ef67994ebe07a9463d67683, type: 2}
  - m_RefCount: 1
    m_Data: {fileID: 11400000, guid: ab05eaf7e85977f488022e9da156b3e1, type: 2}
  - m_RefCount: 1
    m_Data: {fileID: 11400000, guid: 2f2115cac504ed44098246c4a546d790, type: 2}
  - m_RefCount: 1
    m_Data: {fileID: 11400000, guid: 0a3bfd9d4b183ad40bffe63d85e54e5a, type: 2}
  - m_RefCount: 1
    m_Data: {fileID: 11400000, guid: 134cc38c76b543b4aacc7d5492a32540, type: 2}
  - m_RefCount: 1
    m_Data: {fileID: 11400000, guid: 013cce6275c62504489bfad76ce1acc4, type: 2}
  - m_RefCount: 1
    m_Data: {fileID: 11400000, guid: 85dffe818ff20b045ae995d2f113a5ab, type: 2}
  - m_RefCount: 1
    m_Data: {fileID: 11400000, guid: 69712d7285d112c408d4ee48c51869df, type: 2}
  - m_RefCount: 1
    m_Data: {fileID: 11400000, guid: 5059328163168a84ca84b2a460fa4f39, type: 2}
  - m_RefCount: 1
    m_Data: {fileID: 11400000, guid: 5f0303cf159c9a44a96037c20eb4afaf, type: 2}
  - m_RefCount: 1
    m_Data: {fileID: 11400000, guid: 21176d8ea2744184ebea2fdfb870fc12, type: 2}
  - m_RefCount: 1
    m_Data: {fileID: 11400000, guid: 0806085387807664783e6a57e4b001e2, type: 2}
  - m_RefCount: 1
    m_Data: {fileID: 11400000, guid: 987b28778853f024bb5233f782e7a054, type: 2}
  - m_RefCount: 1
    m_Data: {fileID: 11400000, guid: 2ccb59b8039d60d46b9b724ff358a987, type: 2}
  - m_RefCount: 1
    m_Data: {fileID: 11400000, guid: c6ca23f5d784d204dae9f5ec47c2144d, type: 2}
  - m_RefCount: 1
    m_Data: {fileID: 11400000, guid: f6de97feee8c8a7448dfd73f207cc221, type: 2}
  - m_RefCount: 1
    m_Data: {fileID: 11400000, guid: 64ba20c775721aa4ca7a996fc6b1cb0e, type: 2}
  - m_RefCount: 1
    m_Data: {fileID: 11400000, guid: d4cf0a90766e8ff4ebaae53ab53836f1, type: 2}
  - m_RefCount: 1
    m_Data: {fileID: 11400000, guid: 576963c57c579704184ff1586e1cc02e, type: 2}
  m_TileSpriteArray:
  - m_RefCount: 0
    m_Data: {fileID: 0}
  - m_RefCount: 0
    m_Data: {fileID: 0}
  - m_RefCount: 0
    m_Data: {fileID: 0}
  - m_RefCount: 0
    m_Data: {fileID: 0}
  - m_RefCount: 0
    m_Data: {fileID: 0}
  - m_RefCount: 0
    m_Data: {fileID: 0}
  - m_RefCount: 0
    m_Data: {fileID: 0}
  - m_RefCount: 0
    m_Data: {fileID: 0}
  - m_RefCount: 0
    m_Data: {fileID: 0}
  - m_RefCount: 0
    m_Data: {fileID: 0}
  - m_RefCount: 0
    m_Data: {fileID: 0}
  - m_RefCount: 0
    m_Data: {fileID: 0}
  - m_RefCount: 0
    m_Data: {fileID: 0}
  - m_RefCount: 0
    m_Data: {fileID: 0}
  - m_RefCount: 0
    m_Data: {fileID: 0}
  - m_RefCount: 0
    m_Data: {fileID: 0}
  - m_RefCount: 0
    m_Data: {fileID: 0}
  - m_RefCount: 0
    m_Data: {fileID: 0}
  - m_RefCount: 0
    m_Data: {fileID: 0}
  - m_RefCount: 0
    m_Data: {fileID: 0}
  - m_RefCount: 0
    m_Data: {fileID: 0}
  - m_RefCount: 0
    m_Data: {fileID: 0}
  - m_RefCount: 0
    m_Data: {fileID: 0}
  - m_RefCount: 0
    m_Data: {fileID: 0}
  - m_RefCount: 0
    m_Data: {fileID: 0}
  - m_RefCount: 0
    m_Data: {fileID: 0}
  - m_RefCount: 0
    m_Data: {fileID: 0}
  - m_RefCount: 0
    m_Data: {fileID: 0}
  - m_RefCount: 0
    m_Data: {fileID: 0}
  - m_RefCount: 0
    m_Data: {fileID: 0}
  - m_RefCount: 0
    m_Data: {fileID: 0}
  - m_RefCount: 0
    m_Data: {fileID: 0}
  - m_RefCount: 0
    m_Data: {fileID: 0}
  - m_RefCount: 0
    m_Data: {fileID: 0}
  - m_RefCount: 0
    m_Data: {fileID: 0}
  - m_RefCount: 0
    m_Data: {fileID: 0}
  - m_RefCount: 0
    m_Data: {fileID: 0}
  - m_RefCount: 0
    m_Data: {fileID: 0}
  - m_RefCount: 0
    m_Data: {fileID: 0}
  - m_RefCount: 0
    m_Data: {fileID: 0}
  - m_RefCount: 0
    m_Data: {fileID: 0}
  - m_RefCount: 0
    m_Data: {fileID: 0}
  - m_RefCount: 0
    m_Data: {fileID: 0}
  - m_RefCount: 0
    m_Data: {fileID: 0}
  - m_RefCount: 0
    m_Data: {fileID: 0}
  - m_RefCount: 0
    m_Data: {fileID: 0}
  - m_RefCount: 0
    m_Data: {fileID: 0}
  - m_RefCount: 1
    m_Data: {fileID: 1318619001, guid: f6d6863ad9b7cc74eb1f8c46c8988a10, type: 3}
  - m_RefCount: 1
    m_Data: {fileID: -1085053922, guid: f6d6863ad9b7cc74eb1f8c46c8988a10, type: 3}
  - m_RefCount: 1
    m_Data: {fileID: 1028841395, guid: f6d6863ad9b7cc74eb1f8c46c8988a10, type: 3}
  - m_RefCount: 1
    m_Data: {fileID: 379693607, guid: f6d6863ad9b7cc74eb1f8c46c8988a10, type: 3}
  - m_RefCount: 1
    m_Data: {fileID: 328823206, guid: f6d6863ad9b7cc74eb1f8c46c8988a10, type: 3}
  - m_RefCount: 1
    m_Data: {fileID: -2049770215, guid: f6d6863ad9b7cc74eb1f8c46c8988a10, type: 3}
  - m_RefCount: 1
    m_Data: {fileID: 1097593288, guid: f6d6863ad9b7cc74eb1f8c46c8988a10, type: 3}
  - m_RefCount: 1
    m_Data: {fileID: -1026282450, guid: f6d6863ad9b7cc74eb1f8c46c8988a10, type: 3}
  - m_RefCount: 1
    m_Data: {fileID: 460890053, guid: f6d6863ad9b7cc74eb1f8c46c8988a10, type: 3}
  - m_RefCount: 1
    m_Data: {fileID: -1354107536, guid: f6d6863ad9b7cc74eb1f8c46c8988a10, type: 3}
  - m_RefCount: 1
    m_Data: {fileID: 413472889, guid: f6d6863ad9b7cc74eb1f8c46c8988a10, type: 3}
  - m_RefCount: 1
    m_Data: {fileID: -1436660145, guid: f6d6863ad9b7cc74eb1f8c46c8988a10, type: 3}
  - m_RefCount: 1
    m_Data: {fileID: -1283867698, guid: f6d6863ad9b7cc74eb1f8c46c8988a10, type: 3}
  - m_RefCount: 1
    m_Data: {fileID: -1925998732, guid: f6d6863ad9b7cc74eb1f8c46c8988a10, type: 3}
  - m_RefCount: 1
    m_Data: {fileID: -1323231162, guid: f6d6863ad9b7cc74eb1f8c46c8988a10, type: 3}
  - m_RefCount: 1
    m_Data: {fileID: -1848026749, guid: f6d6863ad9b7cc74eb1f8c46c8988a10, type: 3}
  - m_RefCount: 1
    m_Data: {fileID: -1119160245, guid: f6d6863ad9b7cc74eb1f8c46c8988a10, type: 3}
  - m_RefCount: 1
    m_Data: {fileID: 117301847, guid: f6d6863ad9b7cc74eb1f8c46c8988a10, type: 3}
  - m_RefCount: 1
    m_Data: {fileID: 1689432520, guid: f6d6863ad9b7cc74eb1f8c46c8988a10, type: 3}
  - m_RefCount: 1
    m_Data: {fileID: -572489277, guid: f6d6863ad9b7cc74eb1f8c46c8988a10, type: 3}
  - m_RefCount: 1
    m_Data: {fileID: 1367735082, guid: f6d6863ad9b7cc74eb1f8c46c8988a10, type: 3}
  - m_RefCount: 1
    m_Data: {fileID: -375532461, guid: f6d6863ad9b7cc74eb1f8c46c8988a10, type: 3}
  - m_RefCount: 1
    m_Data: {fileID: -1411343923, guid: f6d6863ad9b7cc74eb1f8c46c8988a10, type: 3}
  - m_RefCount: 1
    m_Data: {fileID: -1188119018, guid: f6d6863ad9b7cc74eb1f8c46c8988a10, type: 3}
  - m_RefCount: 1
    m_Data: {fileID: -600465324, guid: f6d6863ad9b7cc74eb1f8c46c8988a10, type: 3}
  - m_RefCount: 1
    m_Data: {fileID: -1580428744, guid: f6d6863ad9b7cc74eb1f8c46c8988a10, type: 3}
  - m_RefCount: 1
    m_Data: {fileID: -54349628, guid: f6d6863ad9b7cc74eb1f8c46c8988a10, type: 3}
  - m_RefCount: 1
    m_Data: {fileID: 241760942, guid: f6d6863ad9b7cc74eb1f8c46c8988a10, type: 3}
  - m_RefCount: 1
    m_Data: {fileID: -430354893, guid: f6d6863ad9b7cc74eb1f8c46c8988a10, type: 3}
  - m_RefCount: 1
    m_Data: {fileID: 376401032, guid: f6d6863ad9b7cc74eb1f8c46c8988a10, type: 3}
  - m_RefCount: 1
    m_Data: {fileID: -602114708, guid: f6d6863ad9b7cc74eb1f8c46c8988a10, type: 3}
  - m_RefCount: 1
    m_Data: {fileID: -1693704158, guid: f6d6863ad9b7cc74eb1f8c46c8988a10, type: 3}
  - m_RefCount: 1
    m_Data: {fileID: 691480867, guid: f6d6863ad9b7cc74eb1f8c46c8988a10, type: 3}
  - m_RefCount: 1
    m_Data: {fileID: -1022599894, guid: f6d6863ad9b7cc74eb1f8c46c8988a10, type: 3}
  - m_RefCount: 1
    m_Data: {fileID: 694778571, guid: f6d6863ad9b7cc74eb1f8c46c8988a10, type: 3}
  - m_RefCount: 1
    m_Data: {fileID: 1493358126, guid: f6d6863ad9b7cc74eb1f8c46c8988a10, type: 3}
  - m_RefCount: 1
    m_Data: {fileID: -978817430, guid: f6d6863ad9b7cc74eb1f8c46c8988a10, type: 3}
  - m_RefCount: 1
    m_Data: {fileID: -320561308, guid: f6d6863ad9b7cc74eb1f8c46c8988a10, type: 3}
  - m_RefCount: 1
    m_Data: {fileID: -786759799, guid: f6d6863ad9b7cc74eb1f8c46c8988a10, type: 3}
  - m_RefCount: 1
    m_Data: {fileID: -460309580, guid: f6d6863ad9b7cc74eb1f8c46c8988a10, type: 3}
  - m_RefCount: 1
    m_Data: {fileID: 1318795530, guid: f6d6863ad9b7cc74eb1f8c46c8988a10, type: 3}
  - m_RefCount: 1
    m_Data: {fileID: -1423593082, guid: f6d6863ad9b7cc74eb1f8c46c8988a10, type: 3}
  - m_RefCount: 1
    m_Data: {fileID: 1312691881, guid: f6d6863ad9b7cc74eb1f8c46c8988a10, type: 3}
  - m_RefCount: 1
    m_Data: {fileID: -366050118, guid: f6d6863ad9b7cc74eb1f8c46c8988a10, type: 3}
  - m_RefCount: 1
    m_Data: {fileID: 909344194, guid: f6d6863ad9b7cc74eb1f8c46c8988a10, type: 3}
  - m_RefCount: 1
    m_Data: {fileID: -786615541, guid: f6d6863ad9b7cc74eb1f8c46c8988a10, type: 3}
  - m_RefCount: 1
    m_Data: {fileID: -838955515, guid: f6d6863ad9b7cc74eb1f8c46c8988a10, type: 3}
  - m_RefCount: 1
    m_Data: {fileID: -1801957201, guid: f6d6863ad9b7cc74eb1f8c46c8988a10, type: 3}
  - m_RefCount: 1
    m_Data: {fileID: 1359815417, guid: f6d6863ad9b7cc74eb1f8c46c8988a10, type: 3}
  - m_RefCount: 1
    m_Data: {fileID: 1308667857, guid: f6d6863ad9b7cc74eb1f8c46c8988a10, type: 3}
  - m_RefCount: 1
    m_Data: {fileID: 244578837, guid: f6d6863ad9b7cc74eb1f8c46c8988a10, type: 3}
  - m_RefCount: 1
    m_Data: {fileID: 223488248, guid: f6d6863ad9b7cc74eb1f8c46c8988a10, type: 3}
  - m_RefCount: 1
    m_Data: {fileID: 2051347495, guid: f6d6863ad9b7cc74eb1f8c46c8988a10, type: 3}
  - m_RefCount: 1
    m_Data: {fileID: 381654700, guid: f6d6863ad9b7cc74eb1f8c46c8988a10, type: 3}
  - m_RefCount: 1
    m_Data: {fileID: 1797719894, guid: f6d6863ad9b7cc74eb1f8c46c8988a10, type: 3}
  - m_RefCount: 1
    m_Data: {fileID: 1393367742, guid: f6d6863ad9b7cc74eb1f8c46c8988a10, type: 3}
  - m_RefCount: 1
    m_Data: {fileID: 1226350295, guid: f6d6863ad9b7cc74eb1f8c46c8988a10, type: 3}
  - m_RefCount: 1
    m_Data: {fileID: -2134219283, guid: f6d6863ad9b7cc74eb1f8c46c8988a10, type: 3}
  - m_RefCount: 1
    m_Data: {fileID: -807735179, guid: f6d6863ad9b7cc74eb1f8c46c8988a10, type: 3}
  - m_RefCount: 1
    m_Data: {fileID: 1057520981, guid: f6d6863ad9b7cc74eb1f8c46c8988a10, type: 3}
  - m_RefCount: 1
    m_Data: {fileID: 975846113, guid: f6d6863ad9b7cc74eb1f8c46c8988a10, type: 3}
  - m_RefCount: 1
    m_Data: {fileID: 1510435199, guid: f6d6863ad9b7cc74eb1f8c46c8988a10, type: 3}
  - m_RefCount: 1
    m_Data: {fileID: -1453904795, guid: f6d6863ad9b7cc74eb1f8c46c8988a10, type: 3}
  m_TileMatrixArray:
  - m_RefCount: 63
    m_Data:
      e00: 1
      e01: 0
      e02: 0
      e03: 0
      e10: 0
      e11: 1
      e12: 0
      e13: 0
      e20: 0
      e21: 0
      e22: 1
      e23: 0
      e30: 0
      e31: 0
      e32: 0
      e33: 1
  m_TileColorArray:
  - m_RefCount: 0
    m_Data: {r: NaN, g: NaN, b: NaN, a: NaN}
  - m_RefCount: 0
    m_Data: {r: NaN, g: NaN, b: NaN, a: NaN}
  - m_RefCount: 0
    m_Data: {r: NaN, g: NaN, b: NaN, a: NaN}
  - m_RefCount: 0
    m_Data: {r: NaN, g: NaN, b: NaN, a: NaN}
  - m_RefCount: 0
    m_Data: {r: NaN, g: NaN, b: NaN, a: NaN}
  - m_RefCount: 0
    m_Data: {r: NaN, g: NaN, b: NaN, a: NaN}
  - m_RefCount: 0
    m_Data: {r: NaN, g: NaN, b: NaN, a: NaN}
  - m_RefCount: 0
    m_Data: {r: NaN, g: NaN, b: NaN, a: NaN}
  - m_RefCount: 0
    m_Data: {r: NaN, g: NaN, b: NaN, a: NaN}
  - m_RefCount: 0
    m_Data: {r: NaN, g: NaN, b: NaN, a: NaN}
  - m_RefCount: 0
    m_Data: {r: NaN, g: NaN, b: NaN, a: NaN}
  - m_RefCount: 0
    m_Data: {r: NaN, g: NaN, b: NaN, a: NaN}
  - m_RefCount: 0
    m_Data: {r: NaN, g: NaN, b: NaN, a: NaN}
  - m_RefCount: 0
    m_Data: {r: NaN, g: NaN, b: NaN, a: NaN}
  - m_RefCount: 0
    m_Data: {r: NaN, g: NaN, b: NaN, a: NaN}
  - m_RefCount: 0
    m_Data: {r: NaN, g: NaN, b: NaN, a: NaN}
  - m_RefCount: 0
    m_Data: {r: NaN, g: NaN, b: NaN, a: NaN}
  - m_RefCount: 0
    m_Data: {r: NaN, g: NaN, b: NaN, a: NaN}
  - m_RefCount: 0
    m_Data: {r: NaN, g: NaN, b: NaN, a: NaN}
  - m_RefCount: 0
    m_Data: {r: NaN, g: NaN, b: NaN, a: NaN}
  - m_RefCount: 0
    m_Data: {r: NaN, g: NaN, b: NaN, a: NaN}
  - m_RefCount: 0
    m_Data: {r: NaN, g: NaN, b: NaN, a: NaN}
  - m_RefCount: 0
    m_Data: {r: NaN, g: NaN, b: NaN, a: NaN}
  - m_RefCount: 0
    m_Data: {r: NaN, g: NaN, b: NaN, a: NaN}
  - m_RefCount: 0
    m_Data: {r: NaN, g: NaN, b: NaN, a: NaN}
  - m_RefCount: 0
    m_Data: {r: NaN, g: NaN, b: NaN, a: NaN}
  - m_RefCount: 0
    m_Data: {r: NaN, g: NaN, b: NaN, a: NaN}
  - m_RefCount: 0
    m_Data: {r: NaN, g: NaN, b: NaN, a: NaN}
  - m_RefCount: 0
    m_Data: {r: NaN, g: NaN, b: NaN, a: NaN}
  - m_RefCount: 0
    m_Data: {r: NaN, g: NaN, b: NaN, a: NaN}
  - m_RefCount: 0
    m_Data: {r: NaN, g: NaN, b: NaN, a: NaN}
  - m_RefCount: 0
    m_Data: {r: NaN, g: NaN, b: NaN, a: NaN}
  - m_RefCount: 0
    m_Data: {r: NaN, g: NaN, b: NaN, a: NaN}
  - m_RefCount: 0
    m_Data: {r: NaN, g: NaN, b: NaN, a: NaN}
  - m_RefCount: 0
    m_Data: {r: NaN, g: NaN, b: NaN, a: NaN}
  - m_RefCount: 0
    m_Data: {r: NaN, g: NaN, b: NaN, a: NaN}
  - m_RefCount: 0
    m_Data: {r: NaN, g: NaN, b: NaN, a: NaN}
  - m_RefCount: 0
    m_Data: {r: NaN, g: NaN, b: NaN, a: NaN}
  - m_RefCount: 0
    m_Data: {r: NaN, g: NaN, b: NaN, a: NaN}
  - m_RefCount: 0
    m_Data: {r: NaN, g: NaN, b: NaN, a: NaN}
  - m_RefCount: 0
    m_Data: {r: NaN, g: NaN, b: NaN, a: NaN}
  - m_RefCount: 0
    m_Data: {r: NaN, g: NaN, b: NaN, a: NaN}
  - m_RefCount: 0
    m_Data: {r: NaN, g: NaN, b: NaN, a: NaN}
  - m_RefCount: 0
    m_Data: {r: NaN, g: NaN, b: NaN, a: NaN}
  - m_RefCount: 0
    m_Data: {r: NaN, g: NaN, b: NaN, a: NaN}
  - m_RefCount: 0
    m_Data: {r: NaN, g: NaN, b: NaN, a: NaN}
  - m_RefCount: 0
    m_Data: {r: NaN, g: NaN, b: NaN, a: NaN}
  - m_RefCount: 63
    m_Data: {r: 1, g: 1, b: 1, a: 1}
  m_TileObjectToInstantiateArray: []
  m_AnimationFrameRate: 1
  m_Color: {r: 1, g: 1, b: 1, a: 1}
  m_Origin: {x: -6, y: -6, z: 0}
  m_Size: {x: 13, y: 17, z: 1}
  m_TileAnchor: {x: 0.5, y: 0.5, z: 0}
  m_TileOrientation: 0
  m_TileOrientationMatrix:
    e00: 1
    e01: 0
    e02: 0
    e03: 0
    e10: 0
    e11: 1
    e12: 0
    e13: 0
    e20: 0
    e21: 0
    e22: 1
    e23: 0
    e30: 0
    e31: 0
    e32: 0
    e33: 1
--- !u!483693784 &3495096409852854522
TilemapRenderer:
  m_ObjectHideFlags: 0
  m_CorrespondingSourceObject: {fileID: 0}
  m_PrefabInstance: {fileID: 0}
  m_PrefabAsset: {fileID: 0}
  m_GameObject: {fileID: 691278391219472485}
  m_Enabled: 1
  m_CastShadows: 0
  m_ReceiveShadows: 0
  m_DynamicOccludee: 0
  m_StaticShadowCaster: 0
  m_MotionVectors: 1
  m_LightProbeUsage: 0
  m_ReflectionProbeUsage: 0
  m_RayTracingMode: 0
  m_RayTraceProcedural: 0
  m_RenderingLayerMask: 1
  m_RendererPriority: 0
  m_Materials:
  - {fileID: 2100000, guid: a97c105638bdf8b4a8650670310a4cd3, type: 2}
  m_StaticBatchInfo:
    firstSubMesh: 0
    subMeshCount: 0
  m_StaticBatchRoot: {fileID: 0}
  m_ProbeAnchor: {fileID: 0}
  m_LightProbeVolumeOverride: {fileID: 0}
  m_ScaleInLightmap: 1
  m_ReceiveGI: 1
  m_PreserveUVs: 0
  m_IgnoreNormalsForChartDetection: 0
  m_ImportantGI: 0
  m_StitchLightmapSeams: 1
  m_SelectedEditorRenderState: 0
  m_MinimumChartSize: 4
  m_AutoUVMaxDistance: 0.5
  m_AutoUVMaxAngle: 89
  m_LightmapParameters: {fileID: 0}
  m_SortingLayerID: 0
  m_SortingLayer: 0
  m_SortingOrder: 0
  m_ChunkSize: {x: 32, y: 32, z: 32}
  m_ChunkCullingBounds: {x: 0.0031446815, y: 0.0031446815, z: 0}
  m_MaxChunkCount: 16
  m_MaxFrameAge: 16
  m_SortOrder: 0
  m_Mode: 0
  m_DetectChunkCullingBounds: 0
  m_MaskInteraction: 0
--- !u!1 &7221412810351227773
GameObject:
  m_ObjectHideFlags: 0
  m_CorrespondingSourceObject: {fileID: 0}
  m_PrefabInstance: {fileID: 0}
  m_PrefabAsset: {fileID: 0}
  serializedVersion: 6
  m_Component:
  - component: {fileID: 4551971361262269}
  - component: {fileID: 3751157166549593910}
  m_Layer: 0
  m_Name: Palette
  m_TagString: Untagged
  m_Icon: {fileID: 0}
  m_NavMeshLayer: 0
  m_StaticEditorFlags: 0
  m_IsActive: 1
--- !u!4 &4551971361262269
Transform:
  m_ObjectHideFlags: 0
  m_CorrespondingSourceObject: {fileID: 0}
  m_PrefabInstance: {fileID: 0}
  m_PrefabAsset: {fileID: 0}
  m_GameObject: {fileID: 7221412810351227773}
  m_LocalRotation: {x: 0, y: 0, z: 0, w: 1}
  m_LocalPosition: {x: 0, y: 0, z: 0}
  m_LocalScale: {x: 1, y: 1, z: 1}
  m_ConstrainProportionsScale: 0
  m_Children:
  - {fileID: 507309185833708556}
  m_Father: {fileID: 0}
  m_RootOrder: 0
  m_LocalEulerAnglesHint: {x: 0, y: 0, z: 0}
--- !u!156049354 &3751157166549593910
Grid:
  m_ObjectHideFlags: 0
  m_CorrespondingSourceObject: {fileID: 0}
  m_PrefabInstance: {fileID: 0}
  m_PrefabAsset: {fileID: 0}
  m_GameObject: {fileID: 7221412810351227773}
  m_Enabled: 1
  m_CellSize: {x: 1.0062894, y: 1.0062894, z: 0}
  m_CellGap: {x: 0, y: 0, z: 0}
  m_CellLayout: 0
  m_CellSwizzle: 0
--- !u!114 &7763510016354607664
MonoBehaviour:
  m_ObjectHideFlags: 0
  m_CorrespondingSourceObject: {fileID: 0}
  m_PrefabInstance: {fileID: 0}
  m_PrefabAsset: {fileID: 0}
  m_GameObject: {fileID: 0}
  m_Enabled: 1
  m_EditorHideFlags: 0
  m_Script: {fileID: 12395, guid: 0000000000000000e000000000000000, type: 0}
  m_Name: Palette Settings
  m_EditorClassIdentifier: 
  cellSizing: 0
  m_TransparencySortMode: 0
  m_TransparencySortAxis: {x: 0, y: 0, z: 1}
