%YAML 1.1
%TAG !u! tag:unity3d.com,2011:
--- !u!114 &11400000
MonoBehaviour:
  m_ObjectHideFlags: 0
  m_CorrespondingSourceObject: {fileID: 0}
  m_PrefabInstance: {fileID: 0}
  m_PrefabAsset: {fileID: 0}
  m_GameObject: {fileID: 0}
  m_Enabled: 1
  m_EditorHideFlags: 0
  m_Script: {fileID: 11500000, guid: c3c667cbbf9ddfa45bfbff637a14d25b, type: 3}
  m_Name: TorreOro
  m_EditorClassIdentifier: 
  projectile: {fileID: 11400000, guid: 49a800dfb37bfd24fafad18b2b06127e, type: 2}
  sprite: {fileID: 21300000, guid: b6b2fe718ae014040b5d61f045159cb0, type: 3}
  shotCD: 0.75
  rango: 4.5
