%YAML 1.1
%TAG !u! tag:unity3d.com,2011:
--- !u!114 &11400000
MonoBehaviour:
  m_ObjectHideFlags: 0
  m_CorrespondingSourceObject: {fileID: 0}
  m_PrefabInstance: {fileID: 0}
  m_PrefabAsset: {fileID: 0}
  m_GameObject: {fileID: 0}
  m_Enabled: 1
  m_EditorHideFlags: 0
  m_Script: {fileID: 11500000, guid: c3c667cbbf9ddfa45bfbff637a14d25b, type: 3}
  m_Name: TorreMetal1
  m_EditorClassIdentifier: 
  projectile: {fileID: 11400000, guid: dffcdf9bfa5b84e4daf78041fcb6b7f6, type: 2}
  sprite: {fileID: 21300000, guid: ca9553ebdaf78f14fa2ab1c41ebce3ac, type: 3}
  shotCD: 1.5
  rango: 3.75
