%YAML 1.1
%TAG !u! tag:unity3d.com,2011:
--- !u!114 &11400000
MonoBehaviour:
  m_ObjectHideFlags: 0
  m_CorrespondingSourceObject: {fileID: 0}
  m_PrefabInstance: {fileID: 0}
  m_PrefabAsset: {fileID: 0}
  m_GameObject: {fileID: 0}
  m_Enabled: 1
  m_EditorHideFlags: 0
  m_Script: {fileID: 11500000, guid: 8826fd888bc02064db6e33392ceb9fad, type: 3}
  m_Name: Party
  m_EditorClassIdentifier: 
  party:
  - {fileID: 11400000, guid: 0ef87254422ed1d418f501b1c9841ae4, type: 2}
  - {fileID: 11400000, guid: 5b3eabfc05e1a4b4b887eef46863a5bf, type: 2}
  inventory: {fileID: 11400000, guid: d590c82f01d7c3d4fa3d48c71bbd215e, type: 2}
  money: 999999
