{
  "BurstVersion": "44dde17b-b74e-4847-ac96-fa1d80d6d096",
  "Assemblies": [
    {
      "FullName": "UnityEngine.CoreModule, Version=0.0.0.0, Culture=neutral, PublicKeyToken=null",
      "LastWriteTime": "2022-05-25T19:43:06Z"
    },
    {
      "FullName": "Unity.2D.SpriteShape.Runtime, Version=0.0.0.0, Culture=neutral, PublicKeyToken=null",
      "LastWriteTime": "2022-09-16T16:49:08.82538Z"
    },
    {
      "FullName": "UnityEngine.SpriteShapeModule, Version=0.0.0.0, Culture=neutral, PublicKeyToken=null",
      "LastWriteTime": "2022-05-25T19:43:06Z"
    },
    {
      "FullName": "mscorlib, Version=4.0.0.0, Culture=neutral, PublicKeyToken=b77a5c561934e089",
      "LastWriteTime": "2022-05-25T19:28:24Z"
    },
    {
      "FullName": "netstandard, Version=2.1.0.0, Culture=neutral, PublicKeyToken=cc7b13ffcd2ddd51",
      "LastWriteTime": "2022-05-25T19:28:24Z"
    },
    {
      "FullName": "Unity.Mathematics, Version=1.0.0.0, Culture=neutral, PublicKeyToken=null",
      "LastWriteTime": "2022-09-16T16:49:08.7304042Z"
    },
    {
      "FullName": "Unity.2D.Common.Runtime, Version=0.0.0.0, Culture=neutral, PublicKeyToken=null",
      "LastWriteTime": "2022-09-16T16:49:08.6835292Z"
    },
    {
      "FullName": "mscorlib, Version=2.0.0.0, Culture=neutral, PublicKeyToken=b77a5c561934e089",
      "LastWriteTime": "2022-05-25T19:28:24Z"
    },
    {
      "FullName": "Unity.Burst, Version=0.0.0.0, Culture=neutral, PublicKeyToken=null",
      "LastWriteTime": "2022-09-16T16:49:08.7715241Z"
    },
    {
      "FullName": "Unity.2D.Animation.Editor, Version=0.0.0.0, Culture=neutral, PublicKeyToken=null",
      "LastWriteTime": "2022-09-16T16:49:09.1328477Z"
    },
    {
      "FullName": "UnityEditor.CoreModule, Version=0.0.0.0, Culture=neutral, PublicKeyToken=null",
      "LastWriteTime": "2022-05-25T19:43:06Z"
    },
    {
      "FullName": "mscorlib, Version=0.0.0.0, Culture=neutral, PublicKeyToken=null",
      "LastWriteTime": "2022-05-25T19:28:24Z"
    }
  ],
  "Functions": [
    {
      "FullName": "Unity.Jobs.IJobExtensions+JobStruct`1[[UnityEngine.U2D.SpriteShapeGenerator, Unity.2D.SpriteShape.Runtime, Version=0.0.0.0, Culture=neutral, PublicKeyToken=null]], UnityEngine.CoreModule, Version=0.0.0.0, Culture=neutral, PublicKeyToken=null::Execute(UnityEngine.U2D.SpriteShapeGenerator&, Unity.2D.SpriteShape.Runtime, Version=0.0.0.0, Culture=neutral, PublicKeyToken=null|System.IntPtr, mscorlib, Version=4.0.0.0, Culture=neutral, PublicKeyToken=b77a5c561934e089|System.IntPtr, mscorlib, Version=4.0.0.0, Culture=neutral, PublicKeyToken=b77a5c561934e089|Unity.Jobs.LowLevel.Unsafe.JobRanges&, UnityEngine.CoreModule, Version=0.0.0.0, Culture=neutral, PublicKeyToken=null|System.Int32, mscorlib, Version=4.0.0.0, Culture=neutral, PublicKeyToken=b77a5c561934e089)",
      "ModuleOptionsHash": 15221144590354301703,
      "ModuleHash": "8172a60202c9cff071082bfb197deb62",
      "LinkName": "104599FDEEB36FAE",
      "AssemblyDependencyIndices": [
        0,
        1,
        2,
        3,
        4,
        5,
        6,
        7
      ]
    },
    {
      "FullName": "Unity.Burst.Intrinsics.X86, Unity.Burst, Version=0.0.0.0, Culture=neutral, PublicKeyToken=null::DoSetCSRTrampoline(System.Int32, mscorlib, Version=4.0.0.0, Culture=neutral, PublicKeyToken=b77a5c561934e089)",
      "ModuleOptionsHash": 15221144590354301703,
      "ModuleHash": "c2f2281415792e8e0566c8c13fb972f6",
      "LinkName": "801E9A000BB37B05",
      "AssemblyDependencyIndices": [
        8,
        4,
        3
      ]
    },
    {
      "FullName": "Unity.Burst.Intrinsics.X86, Unity.Burst, Version=0.0.0.0, Culture=neutral, PublicKeyToken=null::DoGetCSRTrampoline()",
      "ModuleOptionsHash": 15221144590354301703,
      "ModuleHash": "06ad0b9020d36496e074e82c322d377a",
      "LinkName": "CDCA4A5193BE5947",
      "AssemblyDependencyIndices": [
        8,
        4,
        3
      ]
    },
    {
      "FullName": "UnityEditor.U2D.Animation.TriangulationUtility, Unity.2D.Animation.Editor, Version=0.0.0.0, Culture=neutral, PublicKeyToken=null::TessellateBurst(Unity.Collections.Allocator, UnityEngine.CoreModule, Version=0.0.0.0, Culture=neutral, PublicKeyToken=null|Unity.Mathematics.float2*, Unity.Mathematics, Version=1.0.0.0, Culture=neutral, PublicKeyToken=null|System.Int32, mscorlib, Version=4.0.0.0, Culture=neutral, PublicKeyToken=b77a5c561934e089|Unity.Mathematics.int2*, Unity.Mathematics, Version=1.0.0.0, Culture=neutral, PublicKeyToken=null|System.Int32, mscorlib, Version=4.0.0.0, Culture=neutral, PublicKeyToken=b77a5c561934e089|Unity.Mathematics.float2*, Unity.Mathematics, Version=1.0.0.0, Culture=neutral, PublicKeyToken=null|System.Int32*, mscorlib, Version=4.0.0.0, Culture=neutral, PublicKeyToken=b77a5c561934e089|Unity.Mathematics.int2*, Unity.Mathematics, Version=1.0.0.0, Culture=neutral, PublicKeyToken=null|System.Int32, mscorlib, Version=4.0.0.0, Culture=neutral, PublicKeyToken=b77a5c561934e089|Unity.Mathematics.int3*, Unity.Mathematics, Version=1.0.0.0, Culture=neutral, PublicKeyToken=null)",
      "ModuleOptionsHash": 15221144590354301703,
      "ModuleHash": "70096a7fedb05ab1cef776bdb4850b4a",
      "LinkName": "7D2E04AB7759F565",
      "AssemblyDependencyIndices": [
        9,
        3,
        0,
        5,
        4,
        8,
        6,
        10,
        7
      ]
    },
    {
      "FullName": "UnityEditor.U2D.Animation.TriangulationUtility, Unity.2D.Animation.Editor, Version=0.0.0.0, Culture=neutral, PublicKeyToken=null::SubdivideBurst(Unity.Collections.Allocator, UnityEngine.CoreModule, Version=0.0.0.0, Culture=neutral, PublicKeyToken=null|Unity.Mathematics.float2*, Unity.Mathematics, Version=1.0.0.0, Culture=neutral, PublicKeyToken=null|System.Int32, mscorlib, Version=4.0.0.0, Culture=neutral, PublicKeyToken=b77a5c561934e089|Unity.Mathematics.int2*, Unity.Mathematics, Version=1.0.0.0, Culture=neutral, PublicKeyToken=null|System.Int32, mscorlib, Version=4.0.0.0, Culture=neutral, PublicKeyToken=b77a5c561934e089|Unity.Mathematics.float2*, Unity.Mathematics, Version=1.0.0.0, Culture=neutral, PublicKeyToken=null|System.Int32*, mscorlib, Version=4.0.0.0, Culture=neutral, PublicKeyToken=b77a5c561934e089|Unity.Mathematics.int2*, Unity.Mathematics, Version=1.0.0.0, Culture=neutral, PublicKeyToken=null|System.Int32, mscorlib, Version=4.0.0.0, Culture=neutral, PublicKeyToken=b77a5c561934e089|System.Single, mscorlib, Version=4.0.0.0, Culture=neutral, PublicKeyToken=b77a5c561934e089|System.Single, mscorlib, Version=4.0.0.0, Culture=neutral, PublicKeyToken=b77a5c561934e089|System.Int32, mscorlib, Version=4.0.0.0, Culture=neutral, PublicKeyToken=b77a5c561934e089|System.Int32, mscorlib, Version=4.0.0.0, Culture=neutral, PublicKeyToken=b77a5c561934e089|Unity.Mathematics.int3*, Unity.Mathematics, Version=1.0.0.0, Culture=neutral, PublicKeyToken=null)",
      "ModuleOptionsHash": 15221144590354301703,
      "ModuleHash": "65de04e880ca95ab0d40cf1395aa8601",
      "LinkName": "4E9252389FAD9FEE",
      "AssemblyDependencyIndices": [
        9,
        6,
        3,
        0,
        5,
        8,
        4,
        10,
        7
      ]
    },
    {
      "FullName": "UnityEditor.U2D.Animation.TriangulationUtility, Unity.2D.Animation.Editor, Version=0.0.0.0, Culture=neutral, PublicKeyToken=null::ValidateCollinear(Unity.Mathematics.float2*, Unity.Mathematics, Version=1.0.0.0, Culture=neutral, PublicKeyToken=null|System.Int32, mscorlib, Version=4.0.0.0, Culture=neutral, PublicKeyToken=b77a5c561934e089|System.Single, mscorlib, Version=4.0.0.0, Culture=neutral, PublicKeyToken=b77a5c561934e089)",
      "ModuleOptionsHash": 15221144590354301703,
      "ModuleHash": "99091e1ae0742f46f10676be73576b2f",
      "LinkName": "7F9BDFAB3718C423",
      "AssemblyDependencyIndices": [
        9,
        11,
        5,
        10,
        3,
        8,
        4,
        0
      ]
    }
  ]
}