%YAML 1.1
%TAG !u! tag:unity3d.com,2011:
--- !u!114 &11400000
MonoBehaviour:
  m_ObjectHideFlags: 0
  m_CorrespondingSourceObject: {fileID: 0}
  m_PrefabInstance: {fileID: 0}
  m_PrefabAsset: {fileID: 0}
  m_GameObject: {fileID: 0}
  m_Enabled: 1
  m_EditorHideFlags: 0
  m_Script: {fileID: 11500000, guid: 8aa140c972df81649a53a974f51c37a7, type: 3}
  m_Name: metal1
  m_EditorClassIdentifier: 
  sprite: {fileID: 21300000, guid: 422ddcb590b0cb64d94aaae173e62fad, type: 3}
  spd: 6
  damage: 2
