%YAML 1.1
%TAG !u! tag:unity3d.com,2011:
--- !u!114 &11400000
MonoBehaviour:
  m_ObjectHideFlags: 0
  m_CorrespondingSourceObject: {fileID: 0}
  m_PrefabInstance: {fileID: 0}
  m_PrefabAsset: {fileID: 0}
  m_GameObject: {fileID: 0}
  m_Enabled: 1
  m_EditorHideFlags: 0
  m_Script: {fileID: 11500000, guid: 5b6de4f05b2972244bc55a6f362fe5d8, type: 3}
  m_Name: EnemicC
  m_EditorClassIdentifier: 
  color: {r: 0.96815324, g: 1, b: 0, a: 1}
  velocitat: 3
  damage: 3
