Library\Bee\artifacts\mvdfrm\Unity.2D.Animation.Editor.ref.dll_A13BD6459BB26E0B.mvfrm
Library\Bee\artifacts\mvdfrm\Unity.2D.Animation.Runtime.ref.dll_6747672A37E369F0.mvfrm
Library\Bee\artifacts\mvdfrm\Unity.2D.Common.Editor.ref.dll_BD59A5CBF9D52B22.mvfrm
Library\Bee\artifacts\mvdfrm\Unity.2D.Common.Runtime.ref.dll_77798F371487C3E9.mvfrm
Library\Bee\artifacts\mvdfrm\Unity.2D.IK.Editor.ref.dll_F60355C05B38283B.mvfrm
Library\Bee\artifacts\mvdfrm\Unity.2D.IK.Runtime.ref.dll_16F22BA31A1D34C0.mvfrm
Library\Bee\artifacts\mvdfrm\Unity.2D.Path.Editor.ref.dll_583975DB52C81A78.mvfrm
Library\Bee\artifacts\mvdfrm\Unity.2D.PixelPerfect.Editor.ref.dll_500201FE28D4C516.mvfrm
Library\Bee\artifacts\mvdfrm\Unity.2D.PixelPerfect.ref.dll_88C9F7A57CCB704B.mvfrm
Library\Bee\artifacts\mvdfrm\Unity.2D.Psdimporter.Editor.ref.dll_B76AC6E0D8C9839C.mvfrm
Library\Bee\artifacts\mvdfrm\Unity.2D.Sprite.Editor.ref.dll_DDBAA27A82CE9E28.mvfrm
Library\Bee\artifacts\mvdfrm\Unity.2D.SpriteShape.Editor.ref.dll_1AEEC37E15960FB3.mvfrm
Library\Bee\artifacts\mvdfrm\Unity.2D.SpriteShape.Runtime.ref.dll_BCD600250821B9C8.mvfrm
Library\Bee\artifacts\mvdfrm\Unity.2D.Tilemap.Editor.ref.dll_436C0E2610862891.mvfrm
Library\Bee\artifacts\mvdfrm\Unity.2D.Tilemap.Extras.Editor.ref.dll_8DA00406C36CC6AA.mvfrm
Library\Bee\artifacts\mvdfrm\Unity.2D.Tilemap.Extras.ref.dll_371E356D6F5B6577.mvfrm
Library\Bee\artifacts\mvdfrm\Unity.Burst.Editor.ref.dll_E2F92DAB6C167CC9.mvfrm
Library\Bee\artifacts\mvdfrm\Unity.Burst.ref.dll_F30DFA20C0DD1968.mvfrm
Library\Bee\artifacts\mvdfrm\Unity.InternalAPIEditorBridge.001.ref.dll_C275F416F58A86FE.mvfrm
Library\Bee\artifacts\mvdfrm\Unity.InternalAPIEngineBridge.001.ref.dll_B4F0ACC15A996E43.mvfrm
Library\Bee\artifacts\mvdfrm\Unity.Mathematics.Editor.ref.dll_9A20CFD48BC11F43.mvfrm
Library\Bee\artifacts\mvdfrm\Unity.Mathematics.ref.dll_E8EFDB1B8D5C174E.mvfrm
Library\Bee\artifacts\mvdfrm\Unity.PlasticSCM.Editor.ref.dll_257AEB342BE77856.mvfrm
Library\Bee\artifacts\mvdfrm\Unity.Rider.Editor.ref.dll_9B5591808ABA37AF.mvfrm
Library\Bee\artifacts\mvdfrm\Unity.Services.Core.Analytics.ref.dll_EDA1682A714EA6BF.mvfrm
Library\Bee\artifacts\mvdfrm\Unity.Services.Core.Environments.ref.dll_7E0AC2CDE81D9C6D.mvfrm
Library\Bee\artifacts\mvdfrm\Unity.Services.Core.ref.dll_131AC9C5EC6E6517.mvfrm
Library\Bee\artifacts\mvdfrm\Unity.TextMeshPro.Editor.ref.dll_159E061D77A10B86.mvfrm
Library\Bee\artifacts\mvdfrm\Unity.TextMeshPro.ref.dll_84A4293DBDD182DB.mvfrm
Library\Bee\artifacts\mvdfrm\Unity.Timeline.Editor.ref.dll_0D3D3C0B73557612.mvfrm
Library\Bee\artifacts\mvdfrm\Unity.Timeline.ref.dll_621CDDF9C514DF8F.mvfrm
Library\Bee\artifacts\mvdfrm\Unity.VSCode.Editor.ref.dll_3628369EB48E4C19.mvfrm
Library\Bee\artifacts\mvdfrm\Unity.VisualScripting.Core.Editor.ref.dll_EDC8690F57C5BDFD.mvfrm
Library\Bee\artifacts\mvdfrm\Unity.VisualScripting.Core.ref.dll_D75DF4EA1AFE54F4.mvfrm
Library\Bee\artifacts\mvdfrm\Unity.VisualScripting.Flow.Editor.ref.dll_6AF951BE66A4493E.mvfrm
Library\Bee\artifacts\mvdfrm\Unity.VisualScripting.Flow.ref.dll_1E6ED5409D07C9A3.mvfrm
Library\Bee\artifacts\mvdfrm\Unity.VisualScripting.SettingsProvider.Editor.ref.dll_A1A44354E0B583A8.mvfrm
Library\Bee\artifacts\mvdfrm\Unity.VisualScripting.Shared.Editor.ref.dll_9669F6EBFF6DFFB7.mvfrm
Library\Bee\artifacts\mvdfrm\Unity.VisualScripting.State.Editor.ref.dll_E03858E727F23F6F.mvfrm
Library\Bee\artifacts\mvdfrm\Unity.VisualScripting.State.ref.dll_D91762B7076BE462.mvfrm
Library\Bee\artifacts\mvdfrm\Unity.VisualStudio.Editor.ref.dll_3A975DBA53ABA4AD.mvfrm
Library\Bee\artifacts\mvdfrm\UnityEditor.UI.ref.dll_4C98D3F7040CD4F5.mvfrm
Library\Bee\artifacts\mvdfrm\UnityEngine.UI.ref.dll_08FEAA520A2EFD60.mvfrm
Library\Bee\artifacts\mvdfrm\UnityEditor.CoreModule.dll_9D7A5A3D426D6C62.mvfrm
Library\Bee\artifacts\mvdfrm\UnityEditor.DeviceSimulatorModule.dll_1E9E319118CF7CFF.mvfrm
Library\Bee\artifacts\mvdfrm\UnityEditor.DiagnosticsModule.dll_BBD437B3D515D78D.mvfrm
Library\Bee\artifacts\mvdfrm\UnityEditor.dll_E8E685CBEDA4CF93.mvfrm
Library\Bee\artifacts\mvdfrm\UnityEditor.GraphViewModule.dll_2748EC9955C00BC4.mvfrm
Library\Bee\artifacts\mvdfrm\UnityEditor.PackageManagerUIModule.dll_007A671220EE133E.mvfrm
Library\Bee\artifacts\mvdfrm\UnityEditor.QuickSearchModule.dll_46E3B8C12DECD3E6.mvfrm
Library\Bee\artifacts\mvdfrm\UnityEditor.SceneTemplateModule.dll_5BE2EABE482A2B27.mvfrm
Library\Bee\artifacts\mvdfrm\UnityEditor.TextCoreFontEngineModule.dll_A7DEE2292657A7A0.mvfrm
Library\Bee\artifacts\mvdfrm\UnityEditor.TextCoreTextEngineModule.dll_EFC7189AB5DB60BE.mvfrm
Library\Bee\artifacts\mvdfrm\UnityEditor.UIBuilderModule.dll_7BD199B5C87884F8.mvfrm
Library\Bee\artifacts\mvdfrm\UnityEditor.UIElementsModule.dll_8059B2D627B9145E.mvfrm
Library\Bee\artifacts\mvdfrm\UnityEditor.UIElementsSamplesModule.dll_095AB5E34B43BCEF.mvfrm
Library\Bee\artifacts\mvdfrm\UnityEditor.UIServiceModule.dll_B4C3AB18B1AFD512.mvfrm
Library\Bee\artifacts\mvdfrm\UnityEditor.UnityConnectModule.dll_7543721B16D64C18.mvfrm
Library\Bee\artifacts\mvdfrm\UnityEngine.AccessibilityModule.dll_8E88565548A052C4.mvfrm
Library\Bee\artifacts\mvdfrm\UnityEngine.AIModule.dll_8162BB6F7C3E8276.mvfrm
Library\Bee\artifacts\mvdfrm\UnityEngine.AndroidJNIModule.dll_FEA29BA970D88334.mvfrm
Library\Bee\artifacts\mvdfrm\UnityEngine.AnimationModule.dll_F5CE68C2301CE06A.mvfrm
Library\Bee\artifacts\mvdfrm\UnityEngine.ARModule.dll_3AD58072D95BE13F.mvfrm
Library\Bee\artifacts\mvdfrm\UnityEngine.AssetBundleModule.dll_8ACCEBB2905388D8.mvfrm
Library\Bee\artifacts\mvdfrm\UnityEngine.AudioModule.dll_2C901094307116DC.mvfrm
Library\Bee\artifacts\mvdfrm\UnityEngine.ClothModule.dll_93786D8F0A8DF5C0.mvfrm
Library\Bee\artifacts\mvdfrm\UnityEngine.ClusterInputModule.dll_F4DFE730C85E1EDE.mvfrm
Library\Bee\artifacts\mvdfrm\UnityEngine.ClusterRendererModule.dll_244AF402888A8A83.mvfrm
Library\Bee\artifacts\mvdfrm\UnityEngine.CoreModule.dll_C09B2D8FEA72D78D.mvfrm
Library\Bee\artifacts\mvdfrm\UnityEngine.CrashReportingModule.dll_D9059587657F2545.mvfrm
Library\Bee\artifacts\mvdfrm\UnityEngine.DirectorModule.dll_F700787FAF9620EA.mvfrm
Library\Bee\artifacts\mvdfrm\UnityEngine.dll_1B8ACCA44C185C78.mvfrm
Library\Bee\artifacts\mvdfrm\UnityEngine.DSPGraphModule.dll_FC51D9E921F6F20B.mvfrm
Library\Bee\artifacts\mvdfrm\UnityEngine.GameCenterModule.dll_28EFE5C437197425.mvfrm
Library\Bee\artifacts\mvdfrm\UnityEngine.GIModule.dll_199F047D17ED6A90.mvfrm
Library\Bee\artifacts\mvdfrm\UnityEngine.GridModule.dll_9E0C497E02C76D84.mvfrm
Library\Bee\artifacts\mvdfrm\UnityEngine.HotReloadModule.dll_771726C80B4FFBEC.mvfrm
Library\Bee\artifacts\mvdfrm\UnityEngine.ImageConversionModule.dll_903CF1B30AAF4277.mvfrm
Library\Bee\artifacts\mvdfrm\UnityEngine.IMGUIModule.dll_64EFAFFAF6A2AABD.mvfrm
Library\Bee\artifacts\mvdfrm\UnityEngine.InputLegacyModule.dll_1C1206D128453EC9.mvfrm
Library\Bee\artifacts\mvdfrm\UnityEngine.InputModule.dll_9305D844A6A93B80.mvfrm
Library\Bee\artifacts\mvdfrm\UnityEngine.JSONSerializeModule.dll_EE9FDF9147DBB34E.mvfrm
Library\Bee\artifacts\mvdfrm\UnityEngine.LocalizationModule.dll_332CB1835FDA11D7.mvfrm
Library\Bee\artifacts\mvdfrm\UnityEngine.ParticleSystemModule.dll_2C17DED3D390B0D3.mvfrm
Library\Bee\artifacts\mvdfrm\UnityEngine.PerformanceReportingModule.dll_4C005A3B607B394C.mvfrm
Library\Bee\artifacts\mvdfrm\UnityEngine.Physics2DModule.dll_427458B2D119D7FF.mvfrm
Library\Bee\artifacts\mvdfrm\UnityEngine.PhysicsModule.dll_ACCC09B60DFC752D.mvfrm
Library\Bee\artifacts\mvdfrm\UnityEngine.ProfilerModule.dll_2946B1B648EFA7F7.mvfrm
Library\Bee\artifacts\mvdfrm\UnityEngine.RuntimeInitializeOnLoadManagerInitializerModule.dll_9E9D8CFCF201C6C8.mvfrm
Library\Bee\artifacts\mvdfrm\UnityEngine.ScreenCaptureModule.dll_08878D165C47DFB0.mvfrm
Library\Bee\artifacts\mvdfrm\UnityEngine.SharedInternalsModule.dll_144E308881DD3DC7.mvfrm
Library\Bee\artifacts\mvdfrm\UnityEngine.SpriteMaskModule.dll_121C58545889099F.mvfrm
Library\Bee\artifacts\mvdfrm\UnityEngine.SpriteShapeModule.dll_A42E190D45F5C0E2.mvfrm
Library\Bee\artifacts\mvdfrm\UnityEngine.StreamingModule.dll_AA6356127FA497A8.mvfrm
Library\Bee\artifacts\mvdfrm\UnityEngine.SubstanceModule.dll_870E6A5BCAF795B6.mvfrm
Library\Bee\artifacts\mvdfrm\UnityEngine.SubsystemsModule.dll_7CC9BEB626D0F1B2.mvfrm
Library\Bee\artifacts\mvdfrm\UnityEngine.TerrainModule.dll_C7128524E3BABE1B.mvfrm
Library\Bee\artifacts\mvdfrm\UnityEngine.TerrainPhysicsModule.dll_2C9287A6ECD3AB60.mvfrm
Library\Bee\artifacts\mvdfrm\UnityEngine.TextCoreFontEngineModule.dll_263E5D7C3955666B.mvfrm
Library\Bee\artifacts\mvdfrm\UnityEngine.TextCoreTextEngineModule.dll_6E2693EDC8D91F89.mvfrm
Library\Bee\artifacts\mvdfrm\UnityEngine.TextRenderingModule.dll_31C6FF21137F5FA5.mvfrm
Library\Bee\artifacts\mvdfrm\UnityEngine.TilemapModule.dll_660EECA5FB779F24.mvfrm
Library\Bee\artifacts\mvdfrm\UnityEngine.TLSModule.dll_F1C37329664632C1.mvfrm
Library\Bee\artifacts\mvdfrm\UnityEngine.UIElementsModule.dll_8108201E29FD2DA9.mvfrm
Library\Bee\artifacts\mvdfrm\UnityEngine.UIElementsNativeModule.dll_4AF41BA792668360.mvfrm
Library\Bee\artifacts\mvdfrm\UnityEngine.UIModule.dll_7CD6599CD8858822.mvfrm
Library\Bee\artifacts\mvdfrm\UnityEngine.UmbraModule.dll_A764BCACBD97C24F.mvfrm
Library\Bee\artifacts\mvdfrm\UnityEngine.UNETModule.dll_534175793781CD06.mvfrm
Library\Bee\artifacts\mvdfrm\UnityEngine.UnityAnalyticsModule.dll_4BB74F9D7FB802CF.mvfrm
Library\Bee\artifacts\mvdfrm\UnityEngine.UnityConnectModule.dll_62A2F62A115E4CC3.mvfrm
Library\Bee\artifacts\mvdfrm\UnityEngine.UnityCurlModule.dll_28EB09F3A030D257.mvfrm
Library\Bee\artifacts\mvdfrm\UnityEngine.UnityTestProtocolModule.dll_C51D6BD5A53F1245.mvfrm
Library\Bee\artifacts\mvdfrm\UnityEngine.UnityWebRequestAssetBundleModule.dll_1001F168A2F728E0.mvfrm
Library\Bee\artifacts\mvdfrm\UnityEngine.UnityWebRequestAudioModule.dll_C3FCAE19E6E603E4.mvfrm
Library\Bee\artifacts\mvdfrm\UnityEngine.UnityWebRequestModule.dll_A1DBF95D15A3DCF6.mvfrm
Library\Bee\artifacts\mvdfrm\UnityEngine.UnityWebRequestTextureModule.dll_B9C37D9210E7BE39.mvfrm
Library\Bee\artifacts\mvdfrm\UnityEngine.UnityWebRequestWWWModule.dll_38E8D949B898DBF5.mvfrm
Library\Bee\artifacts\mvdfrm\UnityEngine.VehiclesModule.dll_6EC371FF29BFF085.mvfrm
Library\Bee\artifacts\mvdfrm\UnityEngine.VFXModule.dll_72A20B983CB39C2E.mvfrm
Library\Bee\artifacts\mvdfrm\UnityEngine.VideoModule.dll_519994FEF3033281.mvfrm
Library\Bee\artifacts\mvdfrm\UnityEngine.VirtualTexturingModule.dll_6F80D0166B1503EB.mvfrm
Library\Bee\artifacts\mvdfrm\UnityEngine.VRModule.dll_CFA880227A400D9A.mvfrm
Library\Bee\artifacts\mvdfrm\UnityEngine.WindModule.dll_36EA08B87BA955F6.mvfrm
Library\Bee\artifacts\mvdfrm\UnityEngine.XRModule.dll_02674327037A5AF8.mvfrm
Library\Bee\artifacts\mvdfrm\Unity.Burst.Cecil.dll_173FC5E472E13359.mvfrm
Library\Bee\artifacts\mvdfrm\Unity.Burst.Cecil.Mdb.dll_3DE509B8AA3C04D6.mvfrm
Library\Bee\artifacts\mvdfrm\Unity.Burst.Cecil.Pdb.dll_5537822828F10659.mvfrm
Library\Bee\artifacts\mvdfrm\Unity.Burst.Cecil.Rocks.dll_4D5FBF2F9A4FBB99.mvfrm
Library\Bee\artifacts\mvdfrm\Unity.Burst.Unsafe.dll_9A6EB11B4235A46A.mvfrm
Library\Bee\artifacts\mvdfrm\Unity.VisualScripting.Antlr3.Runtime.dll_361D95B7CF0164A1.mvfrm