%YAML 1.1
%TAG !u! tag:unity3d.com,2011:
--- !u!114 &11400000
MonoBehaviour:
  m_ObjectHideFlags: 0
  m_CorrespondingSourceObject: {fileID: 0}
  m_PrefabInstance: {fileID: 0}
  m_PrefabAsset: {fileID: 0}
  m_GameObject: {fileID: 0}
  m_Enabled: 1
  m_EditorHideFlags: 0
  m_Script: {fileID: 11500000, guid: b39c60126c062d74bbda260e4f5b54fd, type: 3}
  m_Name: MenuCharacters
  m_EditorClassIdentifier: 
  CH1: {fileID: 5615130371518764150, guid: 700a8f5f7cfe0e24ea5947e6fd3f3b70, type: 3}
  CH2: {fileID: 4585097023399666154, guid: 54add59b35b7d1848b5fd7422b129593, type: 3}
  CH1Choosen: 1
  CH2Choosen: 0
  transformCh1: {fileID: 5615130371518764151, guid: 700a8f5f7cfe0e24ea5947e6fd3f3b70, type: 3}
  transformCh2: {fileID: 4585097023399666158, guid: 54add59b35b7d1848b5fd7422b129593, type: 3}
  player1: 1
  player2: 2
  practice: 1
  hpCH1: 0
  hpCH2: 0
